x
x
x
x
x
x
x
x
x
x 
x
x
x
x
(repaint rects
  (rect 61 9 62 24)
  (rect 61 15 62 24)
  (rect 57 48 66 24)
  (rect 57 54 66 24)
  (rect 57 87 66 24)
  (rect 57 93 66 24)
  (rect 59 126 64 24)
  (rect 59 132 64 24)
  (rect 59 165 64 24)
  (rect 59 171 64 24)
  (rect 59 204 64 24)
  (rect 59 210 64 24)
  (rect 59 243 64 24)
  (rect 59 249 64 24)
  (rect 61 282 58 28)
  (rect 61 288 58 28)
  (rect 58 321 61 28)
  (rect 58 327 61 28)
  (rect 11 360 778 28)
  (rect 11 366 778 28)
  (rect 61 414 62 22)
  (rect 61 420 62 22)
  (rect 61 453 62 22)
  (rect 61 459 62 22)
  (rect 59 531 64 36)
  (rect 59 537 64 36)
  (rect 59 420 40 6)
  (rect 59 438 40 6)
  (rect 59 459 58 6)
  (rect 59 477 58 6)
  (rect 59 492 64 6)
  (rect 59 516 64 6)
)

