(GraphicsLayer
  (bounds 800.00 600.00)
  (children 1
    (GraphicsLayer
      (bounds 800.00 600.00)
      (contentsOpaque 1)
      (drawsContent 1)
      (children 7
        (GraphicsLayer
          (position 8.00 8.00)
          (bounds 308.00 208.00)
          (drawsContent 1)
          (children 3
            (GraphicsLayer
              (position 4.00 4.00)
              (bounds 285.00 200.00)
              (children 1
                (GraphicsLayer
                  (bounds 285.00 530.00)
                  (shouldFlattenTransform 0)
                  (drawsContent 1)
                )
              )
            )
            (GraphicsLayer
              (position 289.00 4.00)
              (bounds 15.00 185.00)
            )
            (GraphicsLayer
              (position 289.00 189.00)
              (bounds 15.00 15.00)
              (drawsContent 1)
            )
          )
        )
        (GraphicsLayer
          (position 50.00 200.00)
          (bounds 200.00 200.00)
          (contentsOpaque 1)
          (hasClipParent 1)
          (children 1
            (GraphicsLayer
            )
          )
        )
        (GraphicsLayer
          (position 12.00 12.00)
          (bounds 80.00 80.00)
          (hasScrollParent 1)
          (children 1
            (GraphicsLayer
              (position 10.00 10.00)
              (bounds 100.00 100.00)
              (contentsOpaque 1)
              (children 1
                (GraphicsLayer
                )
              )
            )
          )
        )
        (GraphicsLayer
          (position 22.00 102.00)
          (bounds 100.00 100.00)
          (contentsOpaque 1)
          (hasScrollParent 1)
          (children 1
            (GraphicsLayer
            )
          )
        )
        (GraphicsLayer
          (position 22.00 212.00)
          (bounds 100.00 100.00)
          (contentsOpaque 1)
          (hasScrollParent 1)
          (children 1
            (GraphicsLayer
            )
          )
        )
        (GraphicsLayer
          (position 22.00 322.00)
          (bounds 100.00 100.00)
          (contentsOpaque 1)
          (hasScrollParent 1)
          (children 1
            (GraphicsLayer
            )
          )
        )
        (GraphicsLayer
          (position 22.00 432.00)
          (bounds 100.00 100.00)
          (contentsOpaque 1)
          (hasScrollParent 1)
          (children 1
            (GraphicsLayer
            )
          )
        )
      )
    )
  )
)

