(GraphicsLayer
  (children 2
    (GraphicsLayer
      (position 785.00 0.00)
      (bounds 15.00 600.00)
      (contentsOpaque 1)
    )
    (GraphicsLayer
      (children 1
        (GraphicsLayer
          (bounds 785.00 600.00)
          (children 2
            (GraphicsLayer
              (anchor 0.00 0.00)
              (bounds 785.00 600.00)
              (contentsOpaque 1)
              (drawsContent 1)
            )
            (GraphicsLayer
              (children 1
                (GraphicsLayer
                  (bounds 785.00 3700.00)
                  (children 1
                    (GraphicsLayer
                      (bounds 785.00 3700.00)
                      (drawsContent 1)
                    )
                  )
                )
              )
            )
          )
        )
      )
    )
  )
)

